module gb-cinema-web

go 1.16

require (
	github.com/dgrijalva/jwt-go v3.2.0+incompatible
	github.com/gorilla/mux v1.8.0
	golang.org/x/net v0.0.0-20210405180319-a5a99cb37ef4 // indirect
	golang.org/x/sys v0.0.0-20210403161142-5e06dd20ab57 // indirect
	golang.org/x/text v0.3.6 // indirect
	google.golang.org/genproto v0.0.0-20210406143921-e86de6bf7a46 // indirect
	google.golang.org/grpc v1.37.0
	google.golang.org/protobuf v1.26.0
)
